Chapter 3 Grundlagen R, R-Studio und Jamovi | A Minimal Book Example
…
Das erste Argument heißt .data. Hierfür fügen wir später den Datensatz ein. Das zweite Argument hat keinen expliziten Namen, sondern umfasst eine mit Komma getrennte Liste an Variablennamen. Schauen wir uns ein Beispiel an. Hierfür laden wir zunächst das Paket tidyverse und den Datensatz human_resources:

library(tidyverse)
human_resources <- read_csv("human_resources.csv")

Anschließend können wir die Funktion select ausführen, um verschiede Variablen aus dem Datensatz zu nehmen (Um zu sehen, welche Variablen im Datensatz stecken, gebe colnames(human_resources) in die Konsole ein):

select(.data = human_resources, id, age)

## # A tibble: 1,470 x 2
##       id   age
##    <dbl> <dbl>
##  1     1    41
##  2     2    49
##  3     3    37
##  4     4    33
##  5     5    27
##  6     6    32
##  7     7    59
##  8     8    30
##  9     9    38
## 10    10    36
## # ... with 1,460 more rows

Du erkennst das erste Argument .data, in welches wir den Datensatz einfügen. Zusätzlich geben wir mehrere Variablennamen ein, indem wir die Variablennamen durch ein Komma trennen. Wir hätten ebenso die Argumente umdrehen können:

select(id, age, .data = human_resources)

## # A tibble: 1,470 x 2
##       id   age
##    <dbl> <dbl>
##  1     1    41
##  2     2    49
##  3     3    37
##  4     4    33
##  5     5    27
##  6     6    32
##  7     7    59
##  8     8    30
##  9     9    38
## 10    10    36
## # ... with 1,460 more rows

Generell ist es allerdings ratsam, die Reihenfolge der Argumente beizubehalten. Wenn wir dies tun, können wir die Namen der Argumente ignorieren:

select(human_resources, id, age)

## # A tibble: 1,470 x 2
##       id   age
##    <dbl> <dbl>
##  1     1    41
##  2     2    49
##  3     3    37
##  4     4    33
##  5     5    27
##  6     6    32
##  7     7    59
##  8     8    30
##  9     9    38
## 10    10    36
## # ... with 1,460 more rows
…
Der Vorteil des Pipe-Operators wird dir vermutlich erst im Verlaufe des Kurses deutlich, wenn wir mehrere Manipulationen an Daten vornehmen. An dieser Stelle sei gesagt, dass wir den Pipe-Operator immer wieder verwenden werden, da er die Lesbarkeit unseres Codes erhöht. In den nächsten Erklärungen wirst du sehen, weshalb der Operator so wichtig ist.

Der Pipe Operator ist häufig schwierig mit der Tastatur zu schreiben. In R-Studio gibt es einen Shortcut um den Pipe-Operator einzufügen: Ctrl + Umschalt + M. Dies ist ein Shortcut, den es sich lohnt zu lernen.

3.6.2 Grundlegende tidyverse-Befehle

Es gibt ein paar Funktionen in der Datenanalyse, die wir immer wieder brauchen. Beispielsweise möchten wir häufig neue Variablen berechnen, bestimmte Reihen aus einem Datensatz filtern oder die Häufigkeit des Vorkommens bestimmter Werte zählen. Wir werden den Rest dieses Submoduls verbringen, diese Befehle kennen zu lernen. Im Verlaufe des Seminars wirst du diese Befehle immer wieder verwenden. Es ist daher ratsam, dass du dir diese Befehle gut einprägst.

3.6.2.1 Glimpse: Variablen in einem Datensatz ansehen

In Excel sieht man die Daten jederzeit, in R nicht. Um einen Datensatz beispielsweise in R zu sehen, musst du ihn über die Konsole ausgeben lassen:

human_resources

## # A tibble: 1,470 x 17
##       id   age department     distance_from_ho~ education  employee_count gender
##    <dbl> <dbl> <chr>                      <dbl> <chr>               <dbl> <chr> 
##  1     1    41 Sales                          1 College                 1 Female
##  2     2    49 Research & De~                 8 Below Col~              1 Male  
##  3     3    37 Research & De~                 2 College                 1 Male  
##  4     4    33 Research & De~                 3 Master                  1 Female
##  5     5    27 Research & De~                 2 Below Col~              1 Male  
##  6     6    32 Research & De~                 2 College                 1 Male  
##  7     7    59 Research & De~                 3 Bachelor                1 Female
##  8     8    30 Research & De~                24 Below Col~              1 Male  
##  9     9    38 Research & De~                23 Bachelor                1 Male  
## 10    10    36 Research & De~                27 Bachelor                1 Male  
## # ... with 1,460 more rows, and 10 more variables: job_role <chr>,
## #   job_satisfaction <chr>, marital_status <chr>, monthly_income <dbl>,
## #   num_companies_worked <dbl>, performance_rating <chr>,
## #   total_working_years <dbl>, work_life_balance <chr>, years_at_company <dbl>,
## #   years_since_last_promotion <dbl>
…
Beispielsweise kannst du erkennen, dass 22 Frauen einen Doktorabschluss haben. Bei den Männern sind es 26.

Im Grunde könntest du unendlich viele nominalskalierte Variablen in die Funktion count eintragen, allerdings würde dies unübersichtlich werden. In der Regel reichen eine oder zwei Variablen.

3.6.2.3 select: Variablen aus einem Datensatz selektieren

Datensätze haben manchmal viele Variablen. Um den Überblick zu behalten, können wir uns mit selectnur ein paar wenige Variablen ansehen. Zum Beispiel können wir aus unserem Datensatz nur die Variablen id und age selektieren:

human_resources %>% select(id, age)

## # A tibble: 1,470 x 2
##       id   age
##    <dbl> <dbl>
##  1     1    41
##  2     2    49
##  3     3    37
##  4     4    33
##  5     5    27
##  6     6    32
##  7     7    59
##  8     8    30
##  9     9    38
## 10    10    36
## # ... with 1,460 more rows

Der Aufbau der select-Funktion ist identisch mit den Funktionen glimpse und count. Das erste Argument ist der Datensatz, dann werden die Variablen aufgelistet, mit der die Funktion rechnen soll.

human_resources %>% select(id, age, department)

## # A tibble: 1,470 x 3
##       id   age department            
##    <dbl> <dbl> <chr>                 
##  1     1    41 Sales                 
##  2     2    49 Research & Development
##  3     3    37 Research & Development
##  4     4    33 Research & Development
##  5     5    27 Research & Development
##  6     6    32 Research & Development
##  7     7    59 Research & Development
##  8     8    30 Research & Development
##  9     9    38 Research & Development
## 10    10    36 Research & Development
## # ... with 1,460 more rows

Beispielsweise könnten wir ebenso drei Variablen aus dem Datensatz selektieren.

Im Übrigen. Wenn du dich fragt, woher man weiß, welche Variablen in einem Dtensatz sind. Mit der glimpse-Funktion kannst du dir die Variablennamen in einem Datensatz immer wieder ansehen.

Manchmal wollen wir allerdings genau das Gegenteil. Variablen aus einem Datensatz entfernen. Dies können wir mit select erreichen, indem wir ein Minus vor die Variable setzen, die wir entfernen möchten:

human_resources %>% select(-gender)

## # A tibble: 1,470 x 16
##       id   age department   distance_from_ho~ education employee_count job_role 
##    <dbl> <dbl> <chr>                    <dbl> <chr>              <dbl> <chr>    
##  1     1    41 Sales                        1 College                1 Sales Ex~
##  2     2    49 Research & ~                 8 Below Co~              1 Research~
##  3     3    37 Research & ~                 2 College                1 Laborato~
##  4     4    33 Research & ~                 3 Master                 1 Research~
##  5     5    27 Research & ~                 2 Below Co~              1 Laborato~
##  6     6    32 Research & ~                 2 College                1 Laborato~
##  7     7    59 Research & ~                 3 Bachelor               1 Laborato~
##  8     8    30 Research & ~                24 Below Co~              1 Laborato~
##  9     9    38 Research & ~                23 Bachelor               1 Manufact~
## 10    10    36 Research & ~                27 Bachelor               1 Healthca~
## # ... with 1,460 more rows, and 9 more variables: job_satisfaction <chr>,
## #   marital_status <chr>, monthly_income <dbl>, num_companies_worked <dbl>,
## #   performance_rating <chr>, total_working_years <dbl>,
## #   work_life_balance <chr>, years_at_company <dbl>,
## #   years_since_last_promotion <dbl>
…
human_resources %>% select(education:monthly_income)

## # A tibble: 1,470 x 7
##    education  employee_count gender job_role     job_satisfaction marital_status
##    <chr>               <dbl> <chr>  <chr>        <chr>            <chr>         
##  1 College                 1 Female Sales Execu~ Very High        Single        
##  2 Below Col~              1 Male   Research Sc~ Medium           Married       
##  3 College                 1 Male   Laboratory ~ High             Single        
##  4 Master                  1 Female Research Sc~ High             Married       
##  5 Below Col~              1 Male   Laboratory ~ Medium           Married       
##  6 College                 1 Male   Laboratory ~ Very High        Single        
##  7 Bachelor                1 Female Laboratory ~ Low              Married       
##  8 Below Col~              1 Male   Laboratory ~ High             Divorced      
##  9 Bachelor                1 Male   Manufacturi~ High             Single        
## 10 Bachelor                1 Male   Healthcare ~ High             Married       
## # ... with 1,460 more rows, and 1 more variable: monthly_income <dbl>

Um diese Variablen aus dem Datensatz zu selektieren, musst du die erste und die letzte Variable benennen und mit einem Doppelpunkt trennen.

human_resources %>% select(-(education:monthly_income))

## # A tibble: 1,470 x 10
##       id   age department    distance_from_ho~ num_companies_w~ performance_rat~
##    <dbl> <dbl> <chr>                     <dbl>            <dbl> <chr>           
##  1     1    41 Sales                         1                8 Excellent       
##  2     2    49 Research & D~                 8                1 Outstanding     
##  3     3    37 Research & D~                 2                6 Excellent       
##  4     4    33 Research & D~                 3                1 Excellent       
##  5     5    27 Research & D~                 2                9 Excellent       
##  6     6    32 Research & D~                 2                0 Excellent       
##  7     7    59 Research & D~                 3                4 Outstanding     
##  8     8    30 Research & D~                24                1 Outstanding     
##  9     9    38 Research & D~                23                0 Outstanding     
## 10    10    36 Research & D~                27                6 Excellent       
## # ... with 1,460 more rows, and 4 more variables: total_working_years <dbl>,
## #   work_life_balance <chr>, years_at_company <dbl>,
## #   years_since_last_promotion <dbl>

Möchtest du hingegen, dass genau diese Variablen aus dem Datensatz entfernt werden, musst du die Variablen mit einer Klammer umschließen und ein - davor schreiben.

3.6.2.4 arrange: Datensätze nach Variablen sortieren

Stell dir vor, du möchtest wissen, wer die ältesten Mitarbeitende in der Firma sind. In Excel würdest du hierfür den Datensatz nach dem Alter der Mitarbeitenden sortieren. In tidyverse kannst du das gleiche mit der Funktion arrange schaffen:

human_resources %>% arrange(age)

## # A tibble: 1,470 x 17
##       id   age department     distance_from_ho~ education  employee_count gender
##    <dbl> <dbl> <chr>                      <dbl> <chr>               <dbl> <chr> 
##  1   297    18 Research & De~                 3 Bachelor                1 Male  
##  2   302    18 Sales                         10 Bachelor                1 Female
##  3   458    18 Sales                          5 Bachelor                1 Male  
##  4   728    18 Research & De~                 5 College                 1 Male  
##  5   829    18 Research & De~                 8 Below Col~              1 Male  
##  6   973    18 Research & De~                 1 Bachelor                1 Female
##  7  1154    18 Sales                          3 College                 1 Female
##  8  1312    18 Research & De~                14 Bachelor                1 Female
##  9   128    19 Sales                         22 Below Col~              1 Male  
## 10   150    19 Research & De~                 3 Below Col~              1 Female
## # ... with 1,460 more rows, and 10 more variables: job_role <chr>,
## #   job_satisfaction <chr>, marital_status <chr>, monthly_income <dbl>,
## #   num_companies_worked <dbl>, performance_rating <chr>,
## #   total_working_years <dbl>, work_life_balance <chr>, years_at_company <dbl>,
## #   years_since_last_promotion <dbl>

Wie du siehst sind die Mitarbeitenden von jung nach alt sortiert. Dich interessieren allerdings die älteren Mitarbeitende. Hierfür müssen wir arrange zusätzlich sagen, dass die Variable von hoch nach niedrig angezeigt wird.

human_resources %>% arrange(desc(age))

## # A tibble: 1,470 x 17
##       id   age department     distance_from_ho~ education  employee_count gender
##    <dbl> <dbl> <chr>                      <dbl> <chr>               <dbl> <chr> 
##  1   412    60 Research & De~                 7 Bachelor                1 Female
##  2   428    60 Sales                         28 Bachelor                1 Female
##  3   537    60 Sales                         16 Master                  1 Male  
##  4   880    60 Sales                          7 Master                  1 Male  
##  5  1210    60 Research & De~                 1 Master                  1 Male  
##  6     7    59 Research & De~                 3 Bachelor                1 Female
##  7    64    59 Sales                         25 Bachelor                1 Female
##  8    71    59 Sales                          1 Below Col~              1 Female
##  9   106    59 Human Resourc~                 2 Master                  1 Female
## 10   226    59 Research & De~                 3 Bachelor                1 Male  
## # ... with 1,460 more rows, and 10 more variables: job_role <chr>,
## #   job_satisfaction <chr>, marital_status <chr>, monthly_income <dbl>,
## #   num_companies_worked <dbl>, performance_rating <chr>,
## #   total_working_years <dbl>, work_life_balance <chr>, years_at_company <dbl>,
## #   years_since_last_promotion <dbl>

Nun siehst du, dass die ältesten Mitarbeitende 60 Jahre alt sind. Ebenso erkennst du, dass die Mitarbeitende von alt nach jung sortiert sind.

Wir können aber genausogut zwei Variablen sortieren. Die Reihenfolge der Variablen, die wir in die Funktion arrange eingeben, gibt an, welche Variable zuerst sortiert wird. Zum Beispiel können diejenigen Mitarbeitende innerhalb eines Alters (z.B. alle 60 Jahre alt) nach der Distanz sortieren, die sie zur Arbeit fahren müssen:

human_resources %>% arrange(desc(age), distance_from_home)

## # A tibble: 1,470 x 17
##       id   age department     distance_from_ho~ education  employee_count gender
##    <dbl> <dbl> <chr>                      <dbl> <chr>               <dbl> <chr> 
##  1  1210    60 Research & De~                 1 Master                  1 Male  
##  2   412    60 Research & De~                 7 Bachelor                1 Female
##  3   880    60 Sales                          7 Master                  1 Male  
##  4   537    60 Sales                         16 Master                  1 Male  
##  5   428    60 Sales                         28 Bachelor                1 Female
##  6    71    59 Sales                          1 Below Col~              1 Female
##  7   759    59 Sales                          1 College                 1 Male  
##  8   106    59 Human Resourc~                 2 Master                  1 Female
##  9   744    59 Research & De~                 2 Bachelor                1 Female
## 10     7    59 Research & De~                 3 Bachelor                1 Female
## # ... with 1,460 more rows, and 10 more variables: job_role <chr>,
## #   job_satisfaction <chr>, marital_status <chr>, monthly_income <dbl>,
## #   num_companies_worked <dbl>, performance_rating <chr>,
## #   total_working_years <dbl>, work_life_balance <chr>, years_at_company <dbl>,
## #   years_since_last_promotion <dbl>

Wie du siehst sind die Mitarbeitende, welche 60 Jahre alt sind, nun danach sortiert, wie weit sie von dem Arbeitsplatz entfernt wohnen. Der Mitarbeiter mit der id 1210 beispielsweise wohnt nur einen Kilometer vom Arbeitsplatz entfernt, die Mitarbeitende mit der id 428 wohnt 28 Kilometer.

3.6.2.5 filter: Reihen aus einem Datensatz filtern

Eine weitere häufige Funktion ist das Filtern von Daten. Stell dir beispielsweise vor, du möchtest alle Männer aus dem Datensatz entfernen. Das heißt, jede Reihe bzw. Person, für die in der Variable gender Male steht, soll aus dem Datensatz entfernt werden. Dies können wir mit filter erreichen:

human_resources %>% filter(gender != "Male")

## # A tibble: 588 x 17
##       id   age department     distance_from_ho~ education  employee_count gender
##    <dbl> <dbl> <chr>                      <dbl> <chr>               <dbl> <chr> 
##  1     1    41 Sales                          1 College                 1 Female
##  2     4    33 Research & De~                 3 Master                  1 Female
##  3     7    59 Research & De~                 3 Bachelor                1 Female
##  4    12    29 Research & De~                15 College                 1 Female
##  5    16    29 Research & De~                21 Master                  1 Female
##  6    19    53 Sales                          2 Master                  1 Female
##  7    21    24 Research & De~                11 College                 1 Female
##  8    23    34 Research & De~                 7 Master                  1 Female
##  9    26    53 Research & De~                 5 Bachelor                1 Female
## 10    27    32 Research & De~                16 Below Col~              1 Female
## # ... with 578 more rows, and 10 more variables: job_role <chr>,
## #   job_satisfaction <chr>, marital_status <chr>, monthly_income <dbl>,
## #   num_companies_worked <dbl>, performance_rating <chr>,
## #   total_working_years <dbl>, work_life_balance <chr>, years_at_company <dbl>,
## #   years_since_last_promotion <dbl>
…
